…
``` r
eight_schools <- example_draws("eight_schools")
```

The draws for this example come as a `draws_array` object, that is, an
array with dimensions iterations x chains x variables. We can easily
transform it to another format, for instance, data frame with additional
meta information.

``` r
eight_schools <- as_draws_df(eight_schools)
print(eight_schools)
#> # A tibble: 400 x 13
#>    .chain .iteration .draw    mu    tau `theta[1]` `theta[2]` `theta[3]` `theta[4]`
#>     <int>      <int> <dbl> <dbl>  <dbl>      <dbl>      <dbl>      <dbl>      <dbl>
#>  1      1          1     1 -4.78  1.62      -1.61       -4.96      -5.41    -2.88  
#>  2      1          2     2  6.92  3.40      11.0         9.34       8.60     8.37  
#>  3      1          3     3 11.6   2.37      15.8        11.0       14.9     10.7   
#>  4      1          4     4  3.37 14.6       15.4         6.84      -3.31     5.56  
#>  5      1          5     5  1.33  4.78       3.30        3.09       5.27     2.10  
#>  6      1          6     6 -1.23  6.31       0.452       1.05      -9.22    -4.71  
#>  7      1          7     7  8.35  0.248      8.40        8.09       8.67     8.53  
#>  8      1          8     8  1.63  4.42       8.41        4.09      -6.82    -0.0910
#>  9      1          9     9  8.51  1.13       7.97        8.70      12.1      9.24  
#> 10      1         10    10  6.41  1.35       5.72        4.34       4.39     6.46  
#> # ... with 390 more rows, and 4 more variables: `theta[5]` <dbl>, `theta[6]` <dbl>,
#> #   `theta[7]` <dbl>, `theta[8]` <dbl>
```
…
